Version 4
SHEET 1 1652 680
WIRE 432 -224 432 -272
WIRE 384 -208 320 -208
WIRE -336 -160 -384 -160
WIRE -48 -160 -144 -160
WIRE -608 -144 -608 -192
WIRE 128 -144 64 -144
WIRE 256 -144 128 -144
WIRE -336 -128 -352 -128
WIRE -48 -128 -112 -128
WIRE 432 -80 432 -128
WIRE 560 -80 432 -80
WIRE 672 -80 560 -80
WIRE 816 -80 752 -80
WIRE 880 -80 816 -80
WIRE 928 -80 880 -80
WIRE -608 -48 -608 -64
WIRE 320 -48 320 -208
WIRE 320 -48 304 -48
WIRE 816 -32 816 -80
WIRE 432 -16 432 -80
WIRE -144 48 -144 -96
WIRE -48 48 -144 48
WIRE -384 64 -384 -160
WIRE -384 64 -608 64
WIRE -272 64 -384 64
WIRE 144 64 64 64
WIRE 192 64 192 -48
WIRE 192 64 144 64
WIRE 256 64 256 -144
WIRE 384 64 256 64
WIRE -112 80 -112 -128
WIRE -112 80 -160 80
WIRE -48 80 -112 80
WIRE -352 96 -352 -128
WIRE -352 96 -464 96
WIRE -272 96 -352 96
WIRE 816 112 816 48
WIRE 432 128 432 80
WIRE -608 144 -608 64
WIRE -464 160 -464 96
WIRE -608 272 -608 224
WIRE -464 272 -464 240
FLAG 816 112 0
FLAG -464 272 0
FLAG -608 272 0
FLAG 880 -80 VAVG
FLAG -608 64 VSIG
FLAG -464 96 VREF
FLAG -608 -48 0
FLAG -608 -192 VCC
FLAG 128 -144 VLead
FLAG 144 64 VLag
FLAG -240 -16 VCC
FLAG -240 -240 VCC
FLAG 432 -272 VCC
FLAG 432 128 0
FLAG 560 -80 VOUT
SYMBOL 74HCT\\74hct86.i -224 16 R0
SYMATTR InstName U1
SYMATTR SpiceLine VCC=3.3  SPEED=1.0  TRIPDT=1e-9
SYMBOL res 768 -96 R90
WINDOW 0 0 56 VBottom 2
WINDOW 3 32 56 VTop 2
SYMATTR InstName R1
SYMATTR Value 100k
SYMBOL voltage -464 144 R0
WINDOW 3 18 103 Left 2
WINDOW 123 0 0 Left 0
WINDOW 39 0 0 Left 0
SYMATTR Value PULSE(0 3.3 1000m 1p 1p 0.5m 1m 0)
SYMATTR InstName VREF
SYMBOL voltage -608 128 R0
WINDOW 3 -402 92 Left 2
WINDOW 123 0 0 Left 0
WINDOW 39 0 0 Left 0
SYMATTR Value PULSE(0 3.3 1000m 1n 1n 0.5m 1m 0)
SYMATTR InstName VSIG
SYMBOL voltage -608 -160 R0
SYMATTR InstName VCC
SYMATTR Value 3.3V
SYMBOL 74HCT\\74hct74 -240 -240 R0
SYMATTR InstName U6
SYMATTR SpiceLine VCC=3.3  SPEED=1.0  TRIPDT=1e-9
SYMBOL 74HCT\\74hct08.i 0 -208 R0
SYMATTR InstName U2
SYMATTR SpiceLine VCC=3.3  SPEED=1.0  TRIPDT=1e-9
SYMBOL 74HCT\\74hct08.i 0 0 R0
SYMATTR InstName U3
SYMATTR SpiceLine VCC=3.3  SPEED=1.0  TRIPDT=1e-9
SYMBOL nmos 384 -16 R0
SYMATTR InstName M1
SYMBOL pmos 384 -128 M180
WINDOW 3 57 66 Left 2
SYMATTR InstName M2
SYMBOL voltage 816 -48 R0
SYMATTR InstName V1
SYMATTR Value 1.65V
SYMBOL 74HCT\\74hct04 240 -112 R0
SYMATTR InstName U4
TEXT 40 184 Left 2 !.tran 10m
TEXT 232 184 Left 2 !.inc 74hct.lib
